<svg width="20" height="20" viewBox="0 0 20 20" fill="none" xmlns="http://www.w3.org/2000/svg">
<path d="M14.1105 11.5858C13.6628 11.4895 13.3085 11.6974 12.9949 11.8789C12.6737 12.066 12.0629 12.5615 11.7128 12.4347C9.9203 11.6967 8.23443 10.1278 7.50465 8.32811C7.37603 7.97053 7.8692 7.35586 8.05491 7.03085C8.23512 6.71624 8.43872 6.35866 8.34586 5.90754C8.26195 5.50214 7.17656 4.12104 6.79275 3.74337C6.53963 3.49389 6.28032 3.35669 6.01413 3.33451C5.01334 3.29155 3.89562 4.62691 3.69959 4.94638C3.20848 5.62757 3.21124 6.53399 3.70785 7.63305C4.90466 10.5851 9.43125 15.0403 12.3944 16.2821C12.9412 16.5378 13.4413 16.666 13.8904 16.666C14.33 16.666 14.7213 16.5434 15.0577 16.3001C15.3115 16.1539 16.7016 14.9807 16.6651 13.953C16.6431 13.6911 16.5062 13.4291 16.26 13.1755C15.8851 12.7881 14.5129 11.6703 14.1105 11.5858" fill="#4472C4"/>
</svg>
